ATOM INSPIRE: Reference database for ATOM addresses — catrnav_atom_get_address_db_all • CatastRoNav
…
    Other ATOM:
catrnav_atom_get_address(),
catrnav_atom_get_buildings(),
catrnav_atom_get_buildings_db_all(),
catrnav_atom_get_parcels(),
catrnav_atom_get_parcels_db_all()

Other addresses:
catrnav_atom_get_address()

    Examples

# \donttest{
catrnav_atom_get_address_db_all()
#> # A tibble: 272 × 3
#>    munic                            url                               date      
#>    <chr>                            <chr>                             <date>    
#>  1 001 Abáigar                      https://filescartografia.navarra… 2025-07-01
#>  2 002 Abáigarrzuza / Abartzuza     https://filescartografia.navarra… 2025-07-01
#>  3 003 Abaurregaina / Abaurrea Alta https://filescartografia.navarra… 2025-07-01
#>  4 004 Abaurrepea / Abaurrea Baja   https://filescartografia.navarra… 2025-07-01
#>  5 005 Aberin                       https://filescartografia.navarra… 2025-07-01
#>  6 006 Ablitas                      https://filescartografia.navarra… 2025-07-01
#>  7 007 Adiós                        https://filescartografia.navarra… 2025-07-01
#>  8 008 Aguilar de Codés             https://filescartografia.navarra… 2025-07-01
#>  9 009 Aibar / Oibar                https://filescartografia.navarra… 2025-07-01
#> 10 010 Altsasu / Alsasua            https://filescartografia.navarra… 2025-07-01
#> # ℹ 262 more rows
…
