…
Work with cadastral buildings:
[`catrnav_atom_get_buildings()`](https://ropenspain.github.io/CatastRoNav/reference/catrnav_atom_get_buildings.md),
[`catrnav_wfs_get_buildings_bbox()`](https://ropenspain.github.io/CatastRoNav/reference/catrnav_wfs_get_buildings.md),
[`catrnav_wms_get_layer()`](https://ropenspain.github.io/CatastRoNav/reference/catrnav_wms_get_layer.md)

## Examples

``` r
catrnav_atom_get_buildings_db_all()
#> # A tibble: 281 × 3
#>    munic                            url                               date      
#>    <chr>                            <chr>                             <date>    
#>  1 001 Abáigar                      https://filescartografia.navarra… 2026-06-30
#>  2 002 Abárzuza / Abartzuza         https://filescartografia.navarra… 2026-06-30
#>  3 003 Abaurregaina / Abaurrea Alta https://filescartografia.navarra… 2026-06-30
#>  4 004 Abaurrepea / Abaurrea Baja   https://filescartografia.navarra… 2026-06-30
#>  5 005 Aberin                       https://filescartografia.navarra… 2026-06-30
#>  6 006 Ablitas                      https://filescartografia.navarra… 2026-06-30
#>  7 007 Adiós                        https://filescartografia.navarra… 2026-06-30
#>  8 008 Aguilar de Codés             https://filescartografia.navarra… 2026-06-30
#>  9 009 Aibar / Oibar                https://filescartografia.navarra… 2026-06-30
#> 10 010 Altsasu / Alsasua            https://filescartografia.navarra… 2026-06-30
#> # ℹ 271 more rows
```
