…
Other addresses:
[`catrnav_atom_get_address()`](https://ropenspain.github.io/CatastRoNav/reference/catrnav_atom_get_address.md)

## Examples

``` r
# \donttest{
catrnav_atom_get_address_db_all()
#> # A tibble: 272 × 3
#>    munic                            url                               date      
#>    <chr>                            <chr>                             <date>    
#>  1 001 Abáigar                      https://filescartografia.navarra… 2025-10-08
#>  2 002 Abárzuza / Abartzuza         https://filescartografia.navarra… 2025-10-08
#>  3 003 Abaurregaina / Abaurrea Alta https://filescartografia.navarra… 2025-10-08
#>  4 004 Abaurrepea / Abaurrea Baja   https://filescartografia.navarra… 2025-10-08
#>  5 005 Aberin                       https://filescartografia.navarra… 2025-10-08
#>  6 006 Ablitas                      https://filescartografia.navarra… 2025-10-08
#>  7 007 Adiós                        https://filescartografia.navarra… 2025-10-08
#>  8 008 Aguilar de Codés             https://filescartografia.navarra… 2025-10-08
#>  9 009 Aibar / Oibar                https://filescartografia.navarra… 2025-10-08
#> 10 010 Altsasu / Alsasua            https://filescartografia.navarra… 2025-10-08
#> # ℹ 262 more rows
…
