ATOM INSPIRE: Reference database for ATOM cadastral parcels — catrnav_atom_get_parcels_db_all • CatastRoNav
…
    See also

    Other ATOM: 
catrnav_atom_get_parcels()

Other parcels: 
catrnav_atom_get_parcels(),
catrnav_wfs_get_parcels_bbox()

    Examples

# \donttest{
catrnav_atom_get_parcels_db_all()
#> # A tibble: 342 × 3
#>    munic                            url                               date      
#>    <chr>                            <chr>                             <date>    
#>  1 001 Abáigar                      https://filescartografia.navarra… 2023-06-30
#>  2 002 Abárzuza / Abartzuza         https://filescartografia.navarra… 2023-06-30
#>  3 003 Abaurregaina / Abaurrea Alta https://filescartografia.navarra… 2023-06-30
#>  4 004 Abaurrepea / Abaurrea Baja   https://filescartografia.navarra… 2023-06-30
#>  5 005 Aberin                       https://filescartografia.navarra… 2023-06-30
#>  6 006 Ablitas                      https://filescartografia.navarra… 2023-06-30
#>  7 007 Adiós                        https://filescartografia.navarra… 2023-06-30
#>  8 008 Aguilar de Codés             https://filescartografia.navarra… 2023-06-30
#>  9 009 Aibar / Oibar                https://filescartografia.navarra… 2023-06-30
#> 10 010 Altsasu / Alsasua            https://filescartografia.navarra… 2023-06-30
#> # ℹ 332 more rows
…
